…
```
## [1] 7215.327
```

```r
gapminder[gapminder$continent == "Africa",]
```

```
## # A tibble: 624 x 6
##    country continent  year lifeExp      pop gdpPercap
##     <fctr>    <fctr> <int>   <dbl>    <int>     <dbl>
##  1 Algeria    Africa  1952  43.077  9279525  2449.008
##  2 Algeria    Africa  1957  45.685 10270856  3013.976
##  3 Algeria    Africa  1962  48.303 11000948  2550.817
##  4 Algeria    Africa  1967  51.407 12760499  3246.992
##  5 Algeria    Africa  1972  54.518 14760787  4182.664
##  6 Algeria    Africa  1977  58.014 17152804  4910.417
##  7 Algeria    Africa  1982  61.368 20033753  5745.160
##  8 Algeria    Africa  1987  65.799 23254956  5681.359
##  9 Algeria    Africa  1992  67.744 26298373  5023.217
## 10 Algeria    Africa  1997  69.152 29072015  4797.295
## # ... with 614 more rows
```

```r
#alternate method
subset(gapminder, continent == 'Africa')
```

```
## # A tibble: 624 x 6
##    country continent  year lifeExp      pop gdpPercap
##     <fctr>    <fctr> <int>   <dbl>    <int>     <dbl>
##  1 Algeria    Africa  1952  43.077  9279525  2449.008
##  2 Algeria    Africa  1957  45.685 10270856  3013.976
##  3 Algeria    Africa  1962  48.303 11000948  2550.817
##  4 Algeria    Africa  1967  51.407 12760499  3246.992
##  5 Algeria    Africa  1972  54.518 14760787  4182.664
##  6 Algeria    Africa  1977  58.014 17152804  4910.417
##  7 Algeria    Africa  1982  61.368 20033753  5745.160
##  8 Algeria    Africa  1987  65.799 23254956  5681.359
##  9 Algeria    Africa  1992  67.744 26298373  5023.217
## 10 Algeria    Africa  1997  69.152 29072015  4797.295
## # ... with 614 more rows
```
…
There are several commands including select, filter and group_by/summarize that we are going to go through today.

# Select (2:35-2:40)


```r
year_country_gdp <- select(gapminder,year,country,gdpPercap)
gapminder
```

```
## # A tibble: 1,704 x 6
##        country continent  year lifeExp      pop gdpPercap
##         <fctr>    <fctr> <int>   <dbl>    <int>     <dbl>
##  1 Afghanistan      Asia  1952  28.801  8425333  779.4453
##  2 Afghanistan      Asia  1957  30.332  9240934  820.8530
##  3 Afghanistan      Asia  1962  31.997 10267083  853.1007
##  4 Afghanistan      Asia  1967  34.020 11537966  836.1971
##  5 Afghanistan      Asia  1972  36.088 13079460  739.9811
##  6 Afghanistan      Asia  1977  38.438 14880372  786.1134
##  7 Afghanistan      Asia  1982  39.854 12881816  978.0114
##  8 Afghanistan      Asia  1987  40.822 13867957  852.3959
##  9 Afghanistan      Asia  1992  41.674 16317921  649.3414
## 10 Afghanistan      Asia  1997  41.763 22227415  635.3414
## # ... with 1,694 more rows
```

```r
year_country_gdp
```

```
## # A tibble: 1,704 x 3
##     year     country gdpPercap
##    <int>      <fctr>     <dbl>
##  1  1952 Afghanistan  779.4453
##  2  1957 Afghanistan  820.8530
##  3  1962 Afghanistan  853.1007
##  4  1967 Afghanistan  836.1971
##  5  1972 Afghanistan  739.9811
##  6  1977 Afghanistan  786.1134
##  7  1982 Afghanistan  978.0114
##  8  1987 Afghanistan  852.3959
##  9  1992 Afghanistan  649.3414
## 10  1997 Afghanistan  635.3414
## # ... with 1,694 more rows
```
…
```challenge
Write a single command (which can span multiple lines and includes pipes) that will produce a dataframe that has the African values for lifeExp, country and year, but not for other Continents. How many rows does your dataframe have and why?
```

# Group By with Summarize (2:50-3:00)

Now lets look at the combination of group_by and summarize


```r
gapminder
```

```
## # A tibble: 1,704 x 6
##        country continent  year lifeExp      pop gdpPercap
##         <fctr>    <fctr> <int>   <dbl>    <int>     <dbl>
##  1 Afghanistan      Asia  1952  28.801  8425333  779.4453
##  2 Afghanistan      Asia  1957  30.332  9240934  820.8530
##  3 Afghanistan      Asia  1962  31.997 10267083  853.1007
##  4 Afghanistan      Asia  1967  34.020 11537966  836.1971
##  5 Afghanistan      Asia  1972  36.088 13079460  739.9811
##  6 Afghanistan      Asia  1977  38.438 14880372  786.1134
##  7 Afghanistan      Asia  1982  39.854 12881816  978.0114
##  8 Afghanistan      Asia  1987  40.822 13867957  852.3959
##  9 Afghanistan      Asia  1992  41.674 16317921  649.3414
## 10 Afghanistan      Asia  1997  41.763 22227415  635.3414
## # ... with 1,694 more rows
```

```r
gapminder %>% group_by(continent)
```

```
## # A tibble: 1,704 x 6
## # Groups:   continent [5]
##        country continent  year lifeExp      pop gdpPercap
##         <fctr>    <fctr> <int>   <dbl>    <int>     <dbl>
##  1 Afghanistan      Asia  1952  28.801  8425333  779.4453
##  2 Afghanistan      Asia  1957  30.332  9240934  820.8530
##  3 Afghanistan      Asia  1962  31.997 10267083  853.1007
##  4 Afghanistan      Asia  1967  34.020 11537966  836.1971
##  5 Afghanistan      Asia  1972  36.088 13079460  739.9811
##  6 Afghanistan      Asia  1977  38.438 14880372  786.1134
##  7 Afghanistan      Asia  1982  39.854 12881816  978.0114
##  8 Afghanistan      Asia  1987  40.822 13867957  852.3959
##  9 Afghanistan      Asia  1992  41.674 16317921  649.3414
## 10 Afghanistan      Asia  1997  41.763 22227415  635.3414
## # ... with 1,694 more rows
```
…
# Multiple variables (3:05-3:10)


```r
#lets group by multiple variables, here lets now incude year and contienent
gdp_bycontinents_years <- 
  gapminder %>%
  group_by(continent,year) %>%
  summarize(mean_gdpPercap=mean(gdpPercap)) %>%
  arrange(desc(mean_gdpPercap))
gdp_bycontinents_years
```

```
## # A tibble: 60 x 3
## # Groups:   continent [5]
##    continent  year mean_gdpPercap
##       <fctr> <int>          <dbl>
##  1   Oceania  2007       29810.19
##  2   Oceania  2002       26938.78
##  3    Europe  2007       25054.48
##  4   Oceania  1997       24024.18
##  5    Europe  2002       21711.73
##  6   Oceania  1992       20894.05
##  7   Oceania  1987       20448.04
##  8    Europe  1997       19076.78
##  9   Oceania  1982       18554.71
## 10   Oceania  1977       17283.96
## # ... with 50 more rows
```
…
